<svg xmlns="http://www.w3.org/2000/svg" width="32" height="71" viewBox="0 0 32 71">
  <defs>
    <style>
      .cls-1 {
        fill: #da2a32;
        fill-rule: evenodd;
      }
    </style>
  </defs>
  <path id="left.svg" class="cls-1" d="M199.661,1788.62h0a1.006,1.006,0,0,1-1.567,0l-29.774-34.21a1.423,1.423,0,0,1,0-1.81h0a1.019,1.019,0,0,1,1.567,0l29.774,34.22A1.412,1.412,0,0,1,199.661,1788.62Zm-31.341-34.21h0a1.423,1.423,0,0,1,0-1.81l29.774-34.21a1.006,1.006,0,0,1,1.567,0h0a1.412,1.412,0,0,1,0,1.8l-29.774,34.22A1.019,1.019,0,0,1,168.32,1754.41Z" transform="translate(-168 -1718)"/>
</svg>
